{
  "servers": [
    {
      "host": "37.139.19.135",
      "username": "root",
      "pem": "~/.ssh/id_rsa"
    }
  ],
  "setupMongo": true,
  "setupNode": true,
  "nodeVersion": "0.10.44",
  "enableUploadProgressBar": true,
  "appName": "MyAtalianTech",
  "app": ".",
  "env": {
    "ROOT_URL": "http://37.139.19.135",
    "PORT": 80
  },
  "deployCheckWaitTime": 90
}
